\relax 
\catcode`"\active
\providecommand\HyperFirstAtBeginDocument{\AtBeginDocument}
\HyperFirstAtBeginDocument{\ifx\hyper@anchor\@undefined
\global\let\oldcontentsline\contentsline
\gdef\contentsline#1#2#3#4{\oldcontentsline{#1}{#2}{#3}}
\global\let\oldnewlabel\newlabel
\gdef\newlabel#1#2{\newlabelxx{#1}#2}
\gdef\newlabelxx#1#2#3#4#5#6{\oldnewlabel{#1}{{#2}{#3}}}
\AtEndDocument{\ifx\hyper@anchor\@undefined
\let\contentsline\oldcontentsline
\let\newlabel\oldnewlabel
\fi}
\fi}
\global\let\hyper@last\relax 
\gdef\HyperFirstAtBeginDocument#1{#1}
\providecommand\HyField@AuxAddToFields[1]{}
\select@language{russian}
\@writefile{toc}{\select@language{russian}}
\@writefile{lof}{\select@language{russian}}
\@writefile{lot}{\select@language{russian}}
\citation{shegaran}
\citation{russel}
\citation{geiss}
\@writefile{toc}{\contentsline {section}{\numberline {1}\IeC {\CYRV }\IeC {\cyrv }\IeC {\cyre }\IeC {\cyrd }\IeC {\cyre }\IeC {\cyrn }\IeC {\cyri }\IeC {\cyre }}{3}{section.1}}
\citation{suleyman}
\citation{yin}
\@writefile{toc}{\contentsline {section}{\numberline {2}\IeC {\CYRP }\IeC {\cyro }\IeC {\cyrd }\IeC {\cyrb }\IeC {\cyro }\IeC {\cyrr } \IeC {\cyrp }\IeC {\cyro }\IeC {\cyrh }\IeC {\cyro }\IeC {\cyrzh }\IeC {\cyri }\IeC {\cyrh } \IeC {\cyrp }\IeC {\cyro }\IeC {\cyrl }\IeC {\cyrsftsn }\IeC {\cyrz }\IeC {\cyro }\IeC {\cyrv }\IeC {\cyra }\IeC {\cyrt }\IeC {\cyre }\IeC {\cyrl }\IeC {\cyre }\IeC {\cyrishrt } \IeC {\cyrv } \IeC {\cyrs }\IeC {\cyro }\IeC {\cyrc }\IeC {\cyri }\IeC {\cyra }\IeC {\cyrl }\IeC {\cyrsftsn }\IeC {\cyrn }\IeC {\cyro }\IeC {\cyrishrt } \IeC {\cyrs }\IeC {\cyre }\IeC {\cyrt }\IeC {\cyri }}{6}{section.2}}
\@writefile{toc}{\contentsline {subsection}{\numberline {2.1}\IeC {\CYRO }\IeC {\cyrb }\IeC {\cyrshch }\IeC {\cyri }\IeC {\cyre } \IeC {\cyrp }\IeC {\cyro }\IeC {\cyrn }\IeC {\cyrya }\IeC {\cyrt }\IeC {\cyri }\IeC {\cyrya }}{6}{subsection.2.1}}
\@writefile{lof}{\contentsline {figure}{\numberline {1}{\ignorespaces \IeC {\CYRO }\IeC {\cyrf }\IeC {\cyri }\IeC {\cyrc }\IeC {\cyri }\IeC {\cyra }\IeC {\cyrl }\IeC {\cyrsftsn }\IeC {\cyrn }\IeC {\cyra }\IeC {\cyrya } \IeC {\cyrp }\IeC {\cyru }\IeC {\cyrb }\IeC {\cyrl }\IeC {\cyri }\IeC {\cyrch }\IeC {\cyrn }\IeC {\cyra }\IeC {\cyrya } \IeC {\cyrs }\IeC {\cyrt }\IeC {\cyrr }\IeC {\cyra }\IeC {\cyrn }\IeC {\cyri }\IeC {\cyrc }\IeC {\cyra } \IeC {\CYRR }\IeC {\CYRI }\IeC {\CYRA } \IeC {\CYRN }\IeC {\cyro }\IeC {\cyrv }\IeC {\cyro }\IeC {\cyrs }\IeC {\cyrt }\IeC {\cyri } \IeC {\guillemotleft }\IeC {\CYRV }\IeC {\CYRK }\IeC {\cyro }\IeC {\cyrn }\IeC {\cyrt }\IeC {\cyra }\IeC {\cyrk }\IeC {\cyrt }\IeC {\cyre }\IeC {\guillemotright }.\relax }}{6}{figure.1}}
\newlabel{vk-screen}{{1}{6}{Официальная публичная страница РИА Новости «ВКонтакте».\relax \relax }{figure.1}{}}
\citation{guy}
\@writefile{lof}{\contentsline {figure}{\numberline {2}{\ignorespaces \IeC {\CYRZ }\IeC {\cyra }\IeC {\cyrv }\IeC {\cyri }\IeC {\cyrs }\IeC {\cyri }\IeC {\cyrm }\IeC {\cyro }\IeC {\cyrs }\IeC {\cyrt }\IeC {\cyrsftsn } \IeC {\cyro }\IeC {\cyrzh }\IeC {\cyri }\IeC {\cyrd }\IeC {\cyra }\IeC {\cyre }\IeC {\cyrm }\IeC {\cyro }\IeC {\cyrishrt } \IeC {\cyrs }\IeC {\cyrh }\IeC {\cyro }\IeC {\cyrzh }\IeC {\cyre }\IeC {\cyrs }\IeC {\cyrt }\IeC {\cyri } \IeC {\cyrp }\IeC {\cyro }\IeC {\cyrl }\IeC {\cyrsftsn }\IeC {\cyrz }\IeC {\cyro }\IeC {\cyrv }\IeC {\cyra }\IeC {\cyrt }\IeC {\cyre }\IeC {\cyrl }\IeC {\cyre }\IeC {\cyrishrt } \IeC {\cyro }\IeC {\cyrt } \IeC {\cyrt }\IeC {\cyri }\IeC {\cyrp }\IeC {\cyra } \IeC {\cyro }\IeC {\cyrb }\IeC {\cyrshch }\IeC {\cyri }\IeC {\cyrh } \IeC {\cyrh }\IeC {\cyra }\IeC {\cyrr }\IeC {\cyra }\IeC {\cyrk }\IeC {\cyrt }\IeC {\cyre }\IeC {\cyrr }\IeC {\cyri }\IeC {\cyrs }\IeC {\cyrt }\IeC {\cyri }\IeC {\cyrk }.\relax }}{8}{figure.2}}
\newlabel{sns-similarity-experiment}{{2}{8}{Зависимость ожидаемой схожести пользователей от типа общих характеристик.\relax \relax }{figure.2}{}}
\@writefile{toc}{\contentsline {subsection}{\numberline {2.2}\IeC {\CYRP }\IeC {\cyro }\IeC {\cyrs }\IeC {\cyrt }\IeC {\cyra }\IeC {\cyrn }\IeC {\cyro }\IeC {\cyrv }\IeC {\cyrk }\IeC {\cyra } \IeC {\cyrz }\IeC {\cyra }\IeC {\cyrd }\IeC {\cyra }\IeC {\cyrch }\IeC {\cyri }}{9}{subsection.2.2}}
\@writefile{toc}{\contentsline {subsection}{\numberline {2.3}\IeC {\CYRP }\IeC {\cyro }\IeC {\cyrd }\IeC {\cyrh }\IeC {\cyro }\IeC {\cyrd }\IeC {\cyrery } \IeC {\cyrk } \IeC {\cyrp }\IeC {\cyro }\IeC {\cyri }\IeC {\cyrs }\IeC {\cyrk }\IeC {\cyru } \IeC {\cyrb }\IeC {\cyrl }\IeC {\cyri }\IeC {\cyrz }\IeC {\cyrk }\IeC {\cyri }\IeC {\cyrh } \IeC {\cyrp }\IeC {\cyro } \IeC {\cyrh }\IeC {\cyra }\IeC {\cyrr }\IeC {\cyra }\IeC {\cyrk }\IeC {\cyrt }\IeC {\cyre }\IeC {\cyrr }\IeC {\cyri }\IeC {\cyrs }\IeC {\cyrt }\IeC {\cyri }\IeC {\cyrk }\IeC {\cyra }\IeC {\cyrm } \IeC {\cyro }\IeC {\cyrb }\IeC {\cyrhrdsn }\IeC {\cyre }\IeC {\cyrk }\IeC {\cyrt }\IeC {\cyro }\IeC {\cyrv }}{10}{subsection.2.3}}
\@writefile{toc}{\contentsline {subsubsection}{\numberline {2.3.1}\IeC {\CYRG }\IeC {\cyrr }\IeC {\cyru }\IeC {\cyrp }\IeC {\cyrp }\IeC {\cyri }\IeC {\cyrr }\IeC {\cyro }\IeC {\cyrv }\IeC {\cyrk }\IeC {\cyra } \IeC {\cyrn }\IeC {\cyra } \IeC {\cyru }\IeC {\cyrr }\IeC {\cyro }\IeC {\cyrv }\IeC {\cyrn }\IeC {\cyre } \IeC {\CYRB }\IeC {\CYRD }}{10}{subsubsection.2.3.1}}
\@writefile{lof}{\contentsline {figure}{\numberline {3}{\ignorespaces UML-\IeC {\cyrd }\IeC {\cyri }\IeC {\cyra }\IeC {\cyrg }\IeC {\cyrr }\IeC {\cyra }\IeC {\cyrm }\IeC {\cyrm }\IeC {\cyra } \IeC {\cyrt }\IeC {\cyra }\IeC {\cyrb }\IeC {\cyrl }\IeC {\cyri }\IeC {\cyrc } \IeC {\cyrd }\IeC {\cyrl }\IeC {\cyrya } \IeC {\cyro }\IeC {\cyrb }\IeC {\cyrhrdsn }\IeC {\cyre }\IeC {\cyrk }\IeC {\cyrt }\IeC {\cyra } \IeC {\cyri } \IeC {\cyre }\IeC {\cyrg }\IeC {\cyro } \IeC {\cyrh }\IeC {\cyra }\IeC {\cyrr }\IeC {\cyra }\IeC {\cyrk }\IeC {\cyrt }\IeC {\cyre }\IeC {\cyrr }\IeC {\cyri }\IeC {\cyrs }\IeC {\cyrt }\IeC {\cyri }\IeC {\cyrk }.\relax }}{10}{figure.3}}
\newlabel{uml-db-object-traits}{{3}{10}{UML-диаграмма таблиц для объекта и его характеристик.\relax \relax }{figure.3}{}}
\citation{liu}
\@writefile{toc}{\contentsline {subsubsection}{\numberline {2.3.2}\IeC {\CYRB }\IeC {\cyri }\IeC {\cyrt }\IeC {\cyro }\IeC {\cyrv }\IeC {\cyrery }\IeC {\cyre } \IeC {\cyrm }\IeC {\cyra }\IeC {\cyrs }\IeC {\cyrs }\IeC {\cyri }\IeC {\cyrv }\IeC {\cyrery }}{11}{subsubsection.2.3.2}}
\@writefile{lof}{\contentsline {figure}{\numberline {4}{\ignorespaces \IeC {\CYRB }\IeC {\cyri }\IeC {\cyrt }\IeC {\cyro }\IeC {\cyrv }\IeC {\cyro }\IeC {\cyre } \IeC {\cyrp }\IeC {\cyrr }\IeC {\cyre }\IeC {\cyrd }\IeC {\cyrs }\IeC {\cyrt }\IeC {\cyra }\IeC {\cyrv }\IeC {\cyrl }\IeC {\cyre }\IeC {\cyrn }\IeC {\cyri }\IeC {\cyre } \IeC {\cyrh }\IeC {\cyra }\IeC {\cyrr }\IeC {\cyra }\IeC {\cyrk }\IeC {\cyrt }\IeC {\cyre }\IeC {\cyrr }\IeC {\cyri }\IeC {\cyrs }\IeC {\cyrt }\IeC {\cyri }\IeC {\cyrk } \IeC {\cyro }\IeC {\cyrb }\IeC {\cyrhrdsn }\IeC {\cyre }\IeC {\cyrk }\IeC {\cyrt }\IeC {\cyro }\IeC {\cyrv }.\relax }}{11}{figure.4}}
\newlabel{hamming_present}{{4}{11}{Битовое представление характеристик объектов.\relax \relax }{figure.4}{}}
\@writefile{toc}{\contentsline {subsubsection}{\numberline {2.3.3}\IeC {\CYRT }\IeC {\cyre }\IeC {\cyrm }\IeC {\cyra }\IeC {\cyrt }\IeC {\cyri }\IeC {\cyrch }\IeC {\cyre }\IeC {\cyrs }\IeC {\cyrk }\IeC {\cyro }\IeC {\cyre } \IeC {\cyrv }\IeC {\cyre }\IeC {\cyrk }\IeC {\cyrt }\IeC {\cyro }\IeC {\cyrr }\IeC {\cyrn }\IeC {\cyro }\IeC {\cyre } \IeC {\cyrp }\IeC {\cyrr }\IeC {\cyro }\IeC {\cyrs }\IeC {\cyrt }\IeC {\cyrr }\IeC {\cyra }\IeC {\cyrn }\IeC {\cyrs }\IeC {\cyrt }\IeC {\cyrv }\IeC {\cyro } \IeC {\cyrp }\IeC {\cyrr }\IeC {\cyro }\IeC {\cyrf }\IeC {\cyri }\IeC {\cyrl }\IeC {\cyre }\IeC {\cyrishrt }}{12}{subsubsection.2.3.3}}
\@writefile{lof}{\contentsline {figure}{\numberline {5}{\ignorespaces \IeC {\CYRT }\IeC {\cyre }\IeC {\cyrm }\IeC {\cyra }\IeC {\cyrt }\IeC {\cyri }\IeC {\cyrch }\IeC {\cyre }\IeC {\cyrs }\IeC {\cyrk }\IeC {\cyri }\IeC {\cyre } \IeC {\cyrm }\IeC {\cyre }\IeC {\cyrd }\IeC {\cyri }\IeC {\cyra }\IeC {\cyrn }\IeC {\cyrery } \IeC {\cyrk }\IeC {\cyrl }\IeC {\cyra }\IeC {\cyrs }\IeC {\cyrt }\IeC {\cyre }\IeC {\cyrr }\IeC {\cyro }\IeC {\cyrv } \IeC {\cyrd }\IeC {\cyro }\IeC {\cyrk }\IeC {\cyru }\IeC {\cyrm }\IeC {\cyre }\IeC {\cyrn }\IeC {\cyrt }\IeC {\cyro }\IeC {\cyrv }.\relax }}{13}{figure.5}}
\newlabel{tvsm-clustering-stage1}{{5}{14}{Тематические медианы кластеров документов.\relax \relax }{figure.5}{}}
\@writefile{lof}{\contentsline {figure}{\numberline {6}{\ignorespaces \IeC {\CYRR }\IeC {\cyra }\IeC {\cyrs }\IeC {\cyrs }\IeC {\cyrt }\IeC {\cyro }\IeC {\cyrya }\IeC {\cyrn }\IeC {\cyri }\IeC {\cyrya } \IeC {\cyro }\IeC {\cyrt } \IeC {\cyrd }\IeC {\cyro }\IeC {\cyrk }\IeC {\cyru }\IeC {\cyrm }\IeC {\cyre }\IeC {\cyrn }\IeC {\cyrt }\IeC {\cyro }\IeC {\cyrv } \IeC {\cyrd }\IeC {\cyro } \IeC {\cyrt }\IeC {\cyre }\IeC {\cyrm }\IeC {\cyra }\IeC {\cyrt }\IeC {\cyri }\IeC {\cyrch }\IeC {\cyre }\IeC {\cyrs }\IeC {\cyrk }\IeC {\cyri }\IeC {\cyrh } \IeC {\cyrm }\IeC {\cyre }\IeC {\cyrd }\IeC {\cyri }\IeC {\cyra }\IeC {\cyrn }.\relax }}{14}{figure.6}}
\newlabel{tvsm-clustering-stage2}{{6}{14}{Расстояния от документов до тематических медиан.\relax \relax }{figure.6}{}}
\citation{geiss}
\@writefile{lof}{\contentsline {figure}{\numberline {7}{\ignorespaces \IeC {\CYRP }\IeC {\cyrr }\IeC {\cyri }\IeC {\cyrm }\IeC {\cyre }\IeC {\cyrr } \IeC {\cyrt }\IeC {\cyre }\IeC {\cyrm }\IeC {\cyra }\IeC {\cyrt }\IeC {\cyri }\IeC {\cyrch }\IeC {\cyre }\IeC {\cyrs }\IeC {\cyrk }\IeC {\cyro }\IeC {\cyrg }\IeC {\cyro } \IeC {\cyrh }\IeC {\cyrerev }\IeC {\cyrsh }\IeC {\cyri }\IeC {\cyrr }\IeC {\cyro }\IeC {\cyrv }\IeC {\cyra }\IeC {\cyrn }\IeC {\cyri }\IeC {\cyrya } \IeC {\cyrd }\IeC {\cyrl }\IeC {\cyrya } \IeC {\cyrt }\IeC {\cyrr }\IeC {\cyre }\IeC {\cyrh } \IeC {\cyrk }\IeC {\cyrl }\IeC {\cyra }\IeC {\cyrs }\IeC {\cyrt }\IeC {\cyre }\IeC {\cyrr }\IeC {\cyro }\IeC {\cyrv }.\relax }}{15}{figure.7}}
\newlabel{tvsm-clustering-stage3}{{7}{15}{Пример тематического хэширования для трех кластеров.\relax \relax }{figure.7}{}}
\@writefile{toc}{\contentsline {section}{\numberline {3}\IeC {\CYRS }\IeC {\cyre }\IeC {\cyrm }\IeC {\cyra }\IeC {\cyrn }\IeC {\cyrt }\IeC {\cyri }\IeC {\cyrch }\IeC {\cyre }\IeC {\cyrs }\IeC {\cyrk }\IeC {\cyro }\IeC {\cyre } \IeC {\cyrp }\IeC {\cyrr }\IeC {\cyro }\IeC {\cyrs }\IeC {\cyrt }\IeC {\cyrr }\IeC {\cyra }\IeC {\cyrn }\IeC {\cyrs }\IeC {\cyrt }\IeC {\cyrv }\IeC {\cyro }, \IeC {\cyrp }\IeC {\cyrr }\IeC {\cyre }\IeC {\cyrd }\IeC {\cyrv }\IeC {\cyra }\IeC {\cyrr }\IeC {\cyri }\IeC {\cyrt }\IeC {\cyre }\IeC {\cyrl }\IeC {\cyrsftsn }\IeC {\cyrn }\IeC {\cyra }\IeC {\cyrya } \IeC {\cyro }\IeC {\cyrb }\IeC {\cyrr }\IeC {\cyra }\IeC {\cyrb }\IeC {\cyro }\IeC {\cyrt }\IeC {\cyrk }\IeC {\cyra }}{15}{section.3}}
\@writefile{toc}{\contentsline {subsection}{\numberline {3.1}\IeC {\CYRS }\IeC {\cyrt }\IeC {\cyra }\IeC {\cyrn }\IeC {\cyrd }\IeC {\cyra }\IeC {\cyrr }\IeC {\cyrt }\IeC {\cyrn }\IeC {\cyra }\IeC {\cyrya } \IeC {\cyrv }\IeC {\cyre }\IeC {\cyrk }\IeC {\cyrt }\IeC {\cyro }\IeC {\cyrr }\IeC {\cyrn }\IeC {\cyro }-\IeC {\cyrp }\IeC {\cyrr }\IeC {\cyro }\IeC {\cyrs }\IeC {\cyrt }\IeC {\cyrr }\IeC {\cyra }\IeC {\cyrn }\IeC {\cyrs }\IeC {\cyrt }\IeC {\cyrv }\IeC {\cyre }\IeC {\cyrn }\IeC {\cyrn }\IeC {\cyra }\IeC {\cyrya } \IeC {\cyrm }\IeC {\cyro }\IeC {\cyrd }\IeC {\cyre }\IeC {\cyrl }\IeC {\cyrsftsn }}{15}{subsection.3.1}}
\@writefile{lot}{\contentsline {table}{\numberline {1}{\ignorespaces \IeC {\CYRM }\IeC {\cyra }\IeC {\cyrt }\IeC {\cyrr }\IeC {\cyri }\IeC {\cyrc }\IeC {\cyra } \IeC {\cyrs }\IeC {\cyrl }\IeC {\cyro }\IeC {\cyrv } \IeC {\cyri } \IeC {\cyrd }\IeC {\cyro }\IeC {\cyrk }\IeC {\cyru }\IeC {\cyrm }\IeC {\cyre }\IeC {\cyrn }\IeC {\cyrt }\IeC {\cyro }\IeC {\cyrv }.\relax }}{16}{table.1}}
\providecommand*\caption@xref[2]{\@setref\relax\@undefined{#1}}
\newlabel{table:basic-vsm}{{1}{16}{Матрица слов и документов.\relax \relax }{table.1}{}}
\@writefile{lof}{\contentsline {figure}{\numberline {8}{\ignorespaces \IeC {\CYRV }\IeC {\cyre }\IeC {\cyrk }\IeC {\cyrt }\IeC {\cyro }\IeC {\cyrr }\IeC {\cyrn }\IeC {\cyro }\IeC {\cyre } \IeC {\cyrp }\IeC {\cyrr }\IeC {\cyro }\IeC {\cyrs }\IeC {\cyrt }\IeC {\cyrr }\IeC {\cyra }\IeC {\cyrn }\IeC {\cyrs }\IeC {\cyrt }\IeC {\cyrv }\IeC {\cyro } \IeC {\cyrs }\IeC {\cyrv }\IeC {\cyro }\IeC {\cyrd }\IeC {\cyra }.\relax }}{16}{figure.8}}
\newlabel{sample-vsm}{{8}{16}{Векторное пространство свода.\relax \relax }{figure.8}{}}
\@writefile{toc}{\contentsline {subsubsection}{\numberline {3.1.1}\IeC {\CYRV }\IeC {\cyrz }\IeC {\cyrv }\IeC {\cyre }\IeC {\cyrsh }\IeC {\cyri }\IeC {\cyrv }\IeC {\cyra }\IeC {\cyrn }\IeC {\cyri }\IeC {\cyre } \IeC {\cyrs }\IeC {\cyrl }\IeC {\cyro }\IeC {\cyrv }}{16}{subsubsection.3.1.1}}
\@writefile{toc}{\contentsline {subsubsection}{\numberline {3.1.2}\IeC {\CYRK }\IeC {\cyro }\IeC {\cyrerev }\IeC {\cyrf }\IeC {\cyrf }\IeC {\cyri }\IeC {\cyrc }\IeC {\cyri }\IeC {\cyre }\IeC {\cyrn }\IeC {\cyrt } \IeC {\cyrs }\IeC {\cyrh }\IeC {\cyro }\IeC {\cyrzh }\IeC {\cyre }\IeC {\cyrs }\IeC {\cyrt }\IeC {\cyri } \IeC {\cyrd }\IeC {\cyro }\IeC {\cyrk }\IeC {\cyru }\IeC {\cyrm }\IeC {\cyre }\IeC {\cyrn }\IeC {\cyrt }\IeC {\cyro }\IeC {\cyrv }}{17}{subsubsection.3.1.2}}
\newlabel{equation:cosine-sim}{{2}{17}{Коэффициент схожести документов\relax }{equation.3.2}{}}
\@writefile{toc}{\contentsline {subsection}{\numberline {3.2}\IeC {\CYRL }\IeC {\cyra }\IeC {\cyrt }\IeC {\cyre }\IeC {\cyrn }\IeC {\cyrt }\IeC {\cyrn }\IeC {\cyro }-\IeC {\cyrs }\IeC {\cyre }\IeC {\cyrm }\IeC {\cyra }\IeC {\cyrn }\IeC {\cyrt }\IeC {\cyri }\IeC {\cyrch }\IeC {\cyre }\IeC {\cyrs }\IeC {\cyrk }\IeC {\cyri }\IeC {\cyrishrt } \IeC {\cyra }\IeC {\cyrn }\IeC {\cyra }\IeC {\cyrl }\IeC {\cyri }\IeC {\cyrz }}{18}{subsection.3.2}}
\@writefile{lot}{\contentsline {table}{\numberline {2}{\ignorespaces tf-idf \IeC {\cyrv }\IeC {\cyre }\IeC {\cyrs }\IeC {\cyra } \IeC {\cyrs }\IeC {\cyrl }\IeC {\cyro }\IeC {\cyrv } \IeC {\cyrv } \IeC {\cyrd }\IeC {\cyro }\IeC {\cyrk }\IeC {\cyru }\IeC {\cyrm }\IeC {\cyre }\IeC {\cyrn }\IeC {\cyrt }\IeC {\cyra }\IeC {\cyrh }.\relax }}{19}{table.2}}
\newlabel{table:tfidf-terms-docs}{{2}{19}{tf-idf веса слов в документах.\relax \relax }{table.2}{}}
\@writefile{lot}{\contentsline {table}{\numberline {3}{\ignorespaces \IeC {\CYRK }\IeC {\cyro }\IeC {\cyrerev }\IeC {\cyrf }\IeC {\cyrf }\IeC {\cyri }\IeC {\cyrc }\IeC {\cyri }\IeC {\cyre }\IeC {\cyrn }\IeC {\cyrt }\IeC {\cyrery } \IeC {\cyrb }\IeC {\cyrl }\IeC {\cyri }\IeC {\cyrz }\IeC {\cyro }\IeC {\cyrs }\IeC {\cyrt }\IeC {\cyri } \IeC {\cyrm }\IeC {\cyre }\IeC {\cyrzh }\IeC {\cyrd }\IeC {\cyru } \IeC {\cyrs }\IeC {\cyrl }\IeC {\cyro }\IeC {\cyrv }\IeC {\cyra }\IeC {\cyrm }\IeC {\cyri } \IeC {\cyrv } \IeC {\cyrv }\IeC {\cyre }\IeC {\cyrk }\IeC {\cyrt }\IeC {\cyro }\IeC {\cyrr }\IeC {\cyrn }\IeC {\cyro }-\IeC {\cyrp }\IeC {\cyrr }\IeC {\cyro }\IeC {\cyrs }\IeC {\cyrt }\IeC {\cyrr }\IeC {\cyra }\IeC {\cyrn }\IeC {\cyrs }\IeC {\cyrt }\IeC {\cyrv }\IeC {\cyre }\IeC {\cyrn }\IeC {\cyrn }\IeC {\cyro }\IeC {\cyrishrt } \IeC {\cyrm }\IeC {\cyro }\IeC {\cyrd }\IeC {\cyre }\IeC {\cyrl }\IeC {\cyri }.\relax }}{20}{table.3}}
\newlabel{table:tfidf-terms-sim}{{3}{20}{Коэффициенты близости между словами в векторно-пространственной модели.\relax \relax }{table.3}{}}
\@writefile{lot}{\contentsline {table}{\numberline {4}{\ignorespaces \IeC {\CYRK }\IeC {\cyro }\IeC {\cyrerev }\IeC {\cyrf }\IeC {\cyrf }\IeC {\cyri }\IeC {\cyrc }\IeC {\cyri }\IeC {\cyre }\IeC {\cyrn }\IeC {\cyrt }\IeC {\cyrery } \IeC {\cyrb }\IeC {\cyrl }\IeC {\cyri }\IeC {\cyrz }\IeC {\cyro }\IeC {\cyrs }\IeC {\cyrt }\IeC {\cyri } \IeC {\cyrm }\IeC {\cyre }\IeC {\cyrzh }\IeC {\cyrd }\IeC {\cyru } \IeC {\cyrs }\IeC {\cyrl }\IeC {\cyro }\IeC {\cyrv }\IeC {\cyra }\IeC {\cyrm }\IeC {\cyri } \IeC {\cyrv } \IeC {\cyrm }\IeC {\cyro }\IeC {\cyrd }\IeC {\cyre }\IeC {\cyrl }\IeC {\cyri } LSA.\relax }}{20}{table.4}}
\newlabel{table:tfidf-terms-sim-lsa}{{4}{20}{Коэффициенты близости между словами в модели LSA.\relax \relax }{table.4}{}}
\@writefile{toc}{\contentsline {subsubsection}{\numberline {3.2.1}\IeC {\CYRS }\IeC {\cyri }\IeC {\cyrn }\IeC {\cyrg }\IeC {\cyru }\IeC {\cyrl }\IeC {\cyrya }\IeC {\cyrr }\IeC {\cyrn }\IeC {\cyro }\IeC {\cyre } \IeC {\cyrr }\IeC {\cyra }\IeC {\cyrz }\IeC {\cyrl }\IeC {\cyro }\IeC {\cyrzh }\IeC {\cyre }\IeC {\cyrn }\IeC {\cyri }\IeC {\cyre } \IeC {\cyrm }\IeC {\cyra }\IeC {\cyrt }\IeC {\cyrr }\IeC {\cyri }\IeC {\cyrc }}{21}{subsubsection.3.2.1}}
\citation{eckart}
\@writefile{lof}{\contentsline {figure}{\numberline {9}{\ignorespaces \IeC {\CYRS }\IeC {\cyrh }\IeC {\cyre }\IeC {\cyrm }\IeC {\cyra } \IeC {\cyrs }\IeC {\cyri }\IeC {\cyrn }\IeC {\cyrg }\IeC {\cyru }\IeC {\cyrl }\IeC {\cyrya }\IeC {\cyrr }\IeC {\cyrn }\IeC {\cyro }\IeC {\cyrg }\IeC {\cyro } \IeC {\cyrr }\IeC {\cyra }\IeC {\cyrz }\IeC {\cyrl }\IeC {\cyro }\IeC {\cyrzh }\IeC {\cyre }\IeC {\cyrn }\IeC {\cyri }\IeC {\cyrya } \IeC {\cyrm }\IeC {\cyra }\IeC {\cyrt }\IeC {\cyrr }\IeC {\cyri }\IeC {\cyrc }\IeC {\cyrery } \IeC {\cyrp }\IeC {\cyro }\IeC {\cyrr }\IeC {\cyrya }\IeC {\cyrd }\IeC {\cyrk }\IeC {\cyra } $t \times d$ \IeC {\cyrr }\IeC {\cyra }\IeC {\cyrn }\IeC {\cyrg }\IeC {\cyra } $r$.\relax }}{22}{figure.9}}
\newlabel{image:SVD-common-scheme}{{9}{22}{Схема сингулярного разложения матрицы порядка $t \times d$ ранга $r$.\relax \relax }{figure.9}{}}
\@writefile{lof}{\contentsline {figure}{\numberline {10}{\ignorespaces \IeC {\CYRS }\IeC {\cyrh }\IeC {\cyre }\IeC {\cyrm }\IeC {\cyra } \IeC {\cyra }\IeC {\cyrp }\IeC {\cyrp }\IeC {\cyrr }\IeC {\cyro }\IeC {\cyrk }\IeC {\cyrs }\IeC {\cyri }\IeC {\cyrm }\IeC {\cyri }\IeC {\cyrr }\IeC {\cyru }\IeC {\cyryu }\IeC {\cyrshch }\IeC {\cyre }\IeC {\cyrg }\IeC {\cyro } \IeC {\cyrs }\IeC {\cyri }\IeC {\cyrn }\IeC {\cyrg }\IeC {\cyru }\IeC {\cyrl }\IeC {\cyrya }\IeC {\cyrr }\IeC {\cyrn }\IeC {\cyro }\IeC {\cyrg }\IeC {\cyro } \IeC {\cyrr }\IeC {\cyra }\IeC {\cyrz }\IeC {\cyrl }\IeC {\cyro }\IeC {\cyrzh }\IeC {\cyre }\IeC {\cyrn }\IeC {\cyri }\IeC {\cyrya } \IeC {\cyrm }\IeC {\cyra }\IeC {\cyrt }\IeC {\cyrr }\IeC {\cyri }\IeC {\cyrc }\IeC {\cyrery } \IeC {\cyrp }\IeC {\cyro }\IeC {\cyrr }\IeC {\cyrya }\IeC {\cyrd }\IeC {\cyrk }\IeC {\cyra } $t \times d$ \IeC {\cyrs } \IeC {\cyrs }\IeC {\cyro }\IeC {\cyrh }\IeC {\cyrr }\IeC {\cyra }\IeC {\cyrn }\IeC {\cyre }\IeC {\cyrn }\IeC {\cyri }\IeC {\cyre }\IeC {\cyrm } k \IeC {\cyri }\IeC {\cyrz }\IeC {\cyrm }\IeC {\cyre }\IeC {\cyrr }\IeC {\cyre }\IeC {\cyrn }\IeC {\cyri }\IeC {\cyrishrt } \IeC {\cyrs }\IeC {\cyrl }\IeC {\cyro }\IeC {\cyrv }.\relax }}{23}{figure.10}}
\newlabel{image:SVD-reduced-scheme}{{10}{23}{Схема аппроксимирующего сингулярного разложения матрицы порядка $t \times d$ с сохранением k измерений слов.\relax \relax }{figure.10}{}}
\@writefile{toc}{\contentsline {subsection}{\numberline {3.3}\IeC {\CYRP }\IeC {\cyrr }\IeC {\cyre }\IeC {\cyrd }\IeC {\cyrv }\IeC {\cyra }\IeC {\cyrr }\IeC {\cyri }\IeC {\cyrt }\IeC {\cyre }\IeC {\cyrl }\IeC {\cyrsftsn }\IeC {\cyrn }\IeC {\cyra }\IeC {\cyrya } \IeC {\cyro }\IeC {\cyrb }\IeC {\cyrr }\IeC {\cyra }\IeC {\cyrb }\IeC {\cyro }\IeC {\cyrt }\IeC {\cyrk }\IeC {\cyra } \IeC {\cyrt }\IeC {\cyre }\IeC {\cyrk }\IeC {\cyrs }\IeC {\cyrt }\IeC {\cyra }}{23}{subsection.3.3}}
\@writefile{lof}{\contentsline {figure}{\numberline {11}{\ignorespaces \IeC {\CYRO }\IeC {\cyrb }\IeC {\cyrshch }\IeC {\cyra }\IeC {\cyrya } \IeC {\cyrs }\IeC {\cyrh }\IeC {\cyre }\IeC {\cyrm }\IeC {\cyra } \IeC {\cyrr }\IeC {\cyra }\IeC {\cyrb }\IeC {\cyro }\IeC {\cyrt }\IeC {\cyrery } \IeC {\cyrp }\IeC {\cyro }\IeC {\cyrd }\IeC {\cyrs }\IeC {\cyri }\IeC {\cyrs }\IeC {\cyrt }\IeC {\cyre }\IeC {\cyrm }\IeC {\cyrery } \IeC {\cyrk }\IeC {\cyrl }\IeC {\cyra }\IeC {\cyrs }\IeC {\cyrt }\IeC {\cyre }\IeC {\cyrr }\IeC {\cyri }\IeC {\cyrz }\IeC {\cyra }\IeC {\cyrc }\IeC {\cyri }\IeC {\cyri } \IeC {\cyrd }\IeC {\cyro }\IeC {\cyrk }\IeC {\cyru }\IeC {\cyrm }\IeC {\cyre }\IeC {\cyrn }\IeC {\cyrt }\IeC {\cyro }\IeC {\cyrv }.\relax }}{24}{figure.11}}
\newlabel{image:clustering-workflow}{{11}{24}{Общая схема работы подсистемы кластеризации документов.\relax \relax }{figure.11}{}}
\@writefile{toc}{\contentsline {section}{\numberline {4}\IeC {\CYRK }\IeC {\cyrl }\IeC {\cyra }\IeC {\cyrs }\IeC {\cyrt }\IeC {\cyre }\IeC {\cyrr }\IeC {\cyrn }\IeC {\cyrery }\IeC {\cyrishrt } \IeC {\cyra }\IeC {\cyrn }\IeC {\cyra }\IeC {\cyrl }\IeC {\cyri }\IeC {\cyrz }}{25}{section.4}}
\@writefile{toc}{\contentsline {subsection}{\numberline {4.1}\IeC {\CYRO }\IeC {\cyrb }\IeC {\cyrshch }\IeC {\cyri }\IeC {\cyre } \IeC {\cyrp }\IeC {\cyro }\IeC {\cyrn }\IeC {\cyrya }\IeC {\cyrt }\IeC {\cyri }\IeC {\cyrya }}{25}{subsection.4.1}}
\@writefile{lof}{\contentsline {figure}{\numberline {12}{\ignorespaces \IeC {\CYRP }\IeC {\cyrr }\IeC {\cyri }\IeC {\cyrm }\IeC {\cyre }\IeC {\cyrr } \IeC {\cyrk }\IeC {\cyrl }\IeC {\cyra }\IeC {\cyrs }\IeC {\cyrt }\IeC {\cyre }\IeC {\cyrr }\IeC {\cyri }\IeC {\cyrz }\IeC {\cyra }\IeC {\cyrc }\IeC {\cyri }\IeC {\cyri } \IeC {\cyrm }\IeC {\cyre }\IeC {\cyrt }\IeC {\cyro }\IeC {\cyrd }\IeC {\cyro }\IeC {\cyrm } DBSCAN.\relax }}{27}{figure.12}}
\newlabel{image:dbscan-example}{{12}{27}{Пример кластеризации методом DBSCAN.\relax \relax }{figure.12}{}}
\@writefile{toc}{\contentsline {subsubsection}{\numberline {4.1.1}\IeC {\CYRM }\IeC {\cyre }\IeC {\cyrt }\IeC {\cyrr }\IeC {\cyri }\IeC {\cyrk }\IeC {\cyri }}{27}{subsubsection.4.1.1}}
\newlabel{equation:euclid-metric}{{3}{28}{Метрики\relax }{equation.4.3}{}}
\newlabel{equation:cosine-dist}{{4}{28}{Метрики\relax }{equation.4.4}{}}
\@writefile{toc}{\contentsline {subsection}{\numberline {4.2}\IeC {\CYRK }\IeC {\cyro }\IeC {\cyrm }\IeC {\cyrb }\IeC {\cyri }\IeC {\cyrn }\IeC {\cyra }\IeC {\cyrt }\IeC {\cyro }\IeC {\cyrr }\IeC {\cyrn }\IeC {\cyrery }\IeC {\cyre } \IeC {\cyra }\IeC {\cyrl }\IeC {\cyrg }\IeC {\cyro }\IeC {\cyrr }\IeC {\cyri }\IeC {\cyrt }\IeC {\cyrm }\IeC {\cyrery } \IeC {\cyrk }\IeC {\cyrl }\IeC {\cyra }\IeC {\cyrs }\IeC {\cyrt }\IeC {\cyre }\IeC {\cyrr }\IeC {\cyri }\IeC {\cyrz }\IeC {\cyra }\IeC {\cyrc }\IeC {\cyri }\IeC {\cyri }}{29}{subsection.4.2}}
\newlabel{equation:within-clustering-loss}{{5}{29}{Комбинаторные алгоритмы кластеризации\relax }{equation.4.5}{}}
\newlabel{equation:between-clustering-loss}{{6}{29}{Комбинаторные алгоритмы кластеризации\relax }{equation.4.6}{}}
\newlabel{equation:between-clustering-loss}{{7}{29}{Комбинаторные алгоритмы кластеризации\relax }{equation.4.7}{}}
\@writefile{toc}{\contentsline {subsection}{\numberline {4.3}K-\IeC {\cyrs }\IeC {\cyrr }\IeC {\cyre }\IeC {\cyrd }\IeC {\cyrn }\IeC {\cyri }\IeC {\cyre }}{30}{subsection.4.3}}
\newlabel{equation:k-means-opt-problem}{{8}{30}{K-средние\relax }{equation.4.8}{}}
\@writefile{loa}{\contentsline {algocf}{\numberline {1}{\ignorespaces \IeC {\CYRA }\IeC {\cyrl }\IeC {\cyrg }\IeC {\cyro }\IeC {\cyrr }\IeC {\cyri }\IeC {\cyrt }\IeC {\cyrm } k-\IeC {\cyrs }\IeC {\cyrr }\IeC {\cyre }\IeC {\cyrd }\IeC {\cyrn }\IeC {\cyri }\IeC {\cyrh }\relax }}{31}{algocf.1}}
\@writefile{lof}{\contentsline {figure}{\numberline {13}{\ignorespaces \IeC {\CYRP }\IeC {\cyrr }\IeC {\cyri }\IeC {\cyrm }\IeC {\cyre }\IeC {\cyrr } \IeC {\cyrk }\IeC {\cyrl }\IeC {\cyra }\IeC {\cyrs }\IeC {\cyrt }\IeC {\cyre }\IeC {\cyrr }\IeC {\cyri }\IeC {\cyrz }\IeC {\cyra }\IeC {\cyrc }\IeC {\cyri }\IeC {\cyri } k-\IeC {\cyrs }\IeC {\cyrr }\IeC {\cyre }\IeC {\cyrd }\IeC {\cyrn }\IeC {\cyri }\IeC {\cyrm }\IeC {\cyri }.\relax }}{32}{figure.13}}
\newlabel{image:k-means-example}{{13}{32}{Пример кластеризации k-средними.\relax \relax }{figure.13}{}}
\@writefile{lof}{\contentsline {figure}{\numberline {14}{\ignorespaces \IeC {\CYRN }\IeC {\cyre }\IeC {\cyrp }\IeC {\cyrr }\IeC {\cyra }\IeC {\cyrv }\IeC {\cyri }\IeC {\cyrl }\IeC {\cyrsftsn }\IeC {\cyrn }\IeC {\cyrery }\IeC {\cyrishrt } \IeC {\cyrv }\IeC {\cyrery }\IeC {\cyrb }\IeC {\cyro }\IeC {\cyrr } \IeC {\cyrn }\IeC {\cyra }\IeC {\cyrch }\IeC {\cyra }\IeC {\cyrl }\IeC {\cyrsftsn }\IeC {\cyrn }\IeC {\cyrery }\IeC {\cyrh } \IeC {\cyrs }\IeC {\cyrr }\IeC {\cyre }\IeC {\cyrd }\IeC {\cyrn }\IeC {\cyri }\IeC {\cyrh }.\relax }}{32}{figure.14}}
\newlabel{image:k-means-initial-means}{{14}{32}{Неправильный выбор начальных средних.\relax \relax }{figure.14}{}}
\@writefile{loa}{\contentsline {algocf}{\numberline {2}{\ignorespaces \IeC {\CYRA }\IeC {\cyrl }\IeC {\cyrg }\IeC {\cyro }\IeC {\cyrr }\IeC {\cyri }\IeC {\cyrt }\IeC {\cyrm } \IeC {\cyrr }\IeC {\cyra }\IeC {\cyrs }\IeC {\cyrs }\IeC {\cyre }\IeC {\cyrk }\IeC {\cyra }\IeC {\cyre }\IeC {\cyrm }\IeC {\cyrery }\IeC {\cyrh } k-\IeC {\cyrs }\IeC {\cyrr }\IeC {\cyre }\IeC {\cyrd }\IeC {\cyrn }\IeC {\cyri }\IeC {\cyrh }\relax }}{33}{algocf.2}}
\newlabel{algorithm:bisecting-k-means}{{2}{33}{K-средние\relax }{algocf.2}{}}
\@writefile{toc}{\contentsline {subsection}{\numberline {4.4}\IeC {\CYRM }\IeC {\cyre }\IeC {\cyrt }\IeC {\cyro }\IeC {\cyrd } \IeC {\CYRG }\IeC {\cyra }\IeC {\cyru }\IeC {\cyrs }\IeC {\cyrs }\IeC {\cyro }\IeC {\cyrv }\IeC {\cyrery }\IeC {\cyrh } \IeC {\cyrs }\IeC {\cyrm }\IeC {\cyre }\IeC {\cyrs }\IeC {\cyre }\IeC {\cyrishrt }}{33}{subsection.4.4}}
\citation{aivazyan}
\newlabel{equation:gaussian-mixtures}{{9}{34}{Метод Гауссовых смесей\relax }{equation.4.9}{}}
\@writefile{lof}{\contentsline {figure}{\numberline {15}{\ignorespaces \IeC {\CYRS }\IeC {\cyrm }\IeC {\cyre }\IeC {\cyrs }\IeC {\cyrsftsn } \IeC {\cyri }\IeC {\cyrz } \IeC {\cyrt }\IeC {\cyrr }\IeC {\cyre }\IeC {\cyrh } \IeC {\cyrp }\IeC {\cyrl }\IeC {\cyro }\IeC {\cyrt }\IeC {\cyrn }\IeC {\cyro }\IeC {\cyrs }\IeC {\cyrt }\IeC {\cyre }\IeC {\cyrishrt } \IeC {\cyrv }\IeC {\cyre }\IeC {\cyrr }\IeC {\cyro }\IeC {\cyrya }\IeC {\cyrt }\IeC {\cyrn }\IeC {\cyro }\IeC {\cyrs }\IeC {\cyrt }\IeC {\cyri } \IeC {\cyrn }\IeC {\cyra } \IeC {\cyrd }\IeC {\cyrv }\IeC {\cyru }\IeC {\cyrh }\IeC {\cyrm }\IeC {\cyre }\IeC {\cyrr }\IeC {\cyrn }\IeC {\cyro }\IeC {\cyrm } \IeC {\cyrp }\IeC {\cyrr }\IeC {\cyro }\IeC {\cyrs }\IeC {\cyrt }\IeC {\cyrr }\IeC {\cyra }\IeC {\cyrn }\IeC {\cyrs }\IeC {\cyrt }\IeC {\cyrv }\IeC {\cyre }.\relax }}{34}{figure.15}}
\newlabel{image:GMM-example}{{15}{34}{Смесь из трех плотностей вероятности на двухмерном пространстве.\relax \relax }{figure.15}{}}
\@writefile{loa}{\contentsline {algocf}{\numberline {3}{\ignorespaces EM-\IeC {\cyra }\IeC {\cyrl }\IeC {\cyrg }\IeC {\cyro }\IeC {\cyrr }\IeC {\cyri }\IeC {\cyrt }\IeC {\cyrm } \IeC {\cyrd }\IeC {\cyrl }\IeC {\cyrya } \IeC {\cyrg }\IeC {\cyra }\IeC {\cyru }\IeC {\cyrs }\IeC {\cyrs }\IeC {\cyro }\IeC {\cyrv }\IeC {\cyrery }\IeC {\cyrh } \IeC {\cyrs }\IeC {\cyrm }\IeC {\cyre }\IeC {\cyrs }\IeC {\cyre }\IeC {\cyrishrt }\relax }}{35}{algocf.3}}
\newlabel{algorithm:EM-GMM-example}{{3}{35}{Метод Гауссовых смесей\relax }{algocf.3}{}}
\newlabel{equation:GMM-new-mu}{{10}{35}{Метод Гауссовых смесей\relax }{equation.4.10}{}}
\newlabel{equation:GMM-new-sigma}{{11}{36}{Метод Гауссовых смесей\relax }{equation.4.11}{}}
\newlabel{equation:gaussian-log-likelihood}{{12}{36}{Метод Гауссовых смесей\relax }{equation.4.12}{}}
\@writefile{lof}{\contentsline {figure}{\numberline {16}{\ignorespaces \IeC {\CYRP }\IeC {\cyrr }\IeC {\cyri } $\sigma \to 0$ \IeC {\cyrk }\IeC {\cyrl }\IeC {\cyra }\IeC {\cyrs }\IeC {\cyrs }\IeC {\cyri }\IeC {\cyrf }\IeC {\cyri }\IeC {\cyrk }\IeC {\cyra }\IeC {\cyrc }\IeC {\cyri }\IeC {\cyrya } \IeC {\cyrs }\IeC {\cyrt }\IeC {\cyra }\IeC {\cyrn }\IeC {\cyro }\IeC {\cyrv }\IeC {\cyri }\IeC {\cyrt }\IeC {\cyrs }\IeC {\cyrya } \IeC {\cyrd }\IeC {\cyre }\IeC {\cyrt }\IeC {\cyre }\IeC {\cyrr }\IeC {\cyrm }\IeC {\cyri }\IeC {\cyrn }\IeC {\cyri }\IeC {\cyrr }\IeC {\cyro }\IeC {\cyrv }\IeC {\cyra }\IeC {\cyrn }\IeC {\cyrn }\IeC {\cyro }\IeC {\cyrishrt } \IeC {\cyrv }\IeC {\cyrm }\IeC {\cyre }\IeC {\cyrs }\IeC {\cyrt }\IeC {\cyro } \IeC {\cyrn }\IeC {\cyre }\IeC {\cyrch }\IeC {\cyre }\IeC {\cyrt }\IeC {\cyrk }\IeC {\cyro }\IeC {\cyrishrt }.\relax }}{37}{figure.16}}
\newlabel{image:GMM-responsibilities}{{16}{37}{При $\sigma \to 0$ классификация становится детерминированной вместо нечеткой.\relax \relax }{figure.16}{}}
\@writefile{toc}{\contentsline {subsection}{\numberline {4.5}\IeC {\CYRI }\IeC {\cyre }\IeC {\cyrr }\IeC {\cyra }\IeC {\cyrr }\IeC {\cyrh }\IeC {\cyri }\IeC {\cyrch }\IeC {\cyre }\IeC {\cyrs }\IeC {\cyrk }\IeC {\cyra }\IeC {\cyrya } \IeC {\cyrk }\IeC {\cyrl }\IeC {\cyra }\IeC {\cyrs }\IeC {\cyrt }\IeC {\cyre }\IeC {\cyrr }\IeC {\cyri }\IeC {\cyrz }\IeC {\cyra }\IeC {\cyrc }\IeC {\cyri }\IeC {\cyrya }}{37}{subsection.4.5}}
\citation{hastie}
\@writefile{lof}{\contentsline {figure}{\numberline {17}{\ignorespaces \IeC {\CYRP }\IeC {\cyrr }\IeC {\cyri }\IeC {\cyrm }\IeC {\cyre }\IeC {\cyrr }\IeC {\cyrery } \IeC {\cyrm }\IeC {\cyre }\IeC {\cyrr } \IeC {\cyrr }\IeC {\cyra }\IeC {\cyrz }\IeC {\cyrl }\IeC {\cyri }\IeC {\cyrch }\IeC {\cyri }\IeC {\cyrya } \IeC {\cyrm }\IeC {\cyre }\IeC {\cyrzh }\IeC {\cyrd }\IeC {\cyru } \IeC {\cyrk }\IeC {\cyrl }\IeC {\cyra }\IeC {\cyrs }\IeC {\cyrt }\IeC {\cyre }\IeC {\cyrr }\IeC {\cyra }\IeC {\cyrm }\IeC {\cyri } \IeC {\cyrd }\IeC {\cyrl }\IeC {\cyrya } \IeC {\cyra }\IeC {\cyrg }\IeC {\cyrg }\IeC {\cyrl }\IeC {\cyro }\IeC {\cyrm }\IeC {\cyre }\IeC {\cyrr }\IeC {\cyra }\IeC {\cyrt }\IeC {\cyri }\IeC {\cyrv }\IeC {\cyrn }\IeC {\cyro }\IeC {\cyrishrt } \IeC {\cyri }\IeC {\cyre }\IeC {\cyrr }\IeC {\cyra }\IeC {\cyrr }\IeC {\cyrh }\IeC {\cyri }\IeC {\cyrch }\IeC {\cyre }\IeC {\cyrs }\IeC {\cyrk }\IeC {\cyro }\IeC {\cyrishrt } \IeC {\cyrk }\IeC {\cyrl }\IeC {\cyra }\IeC {\cyrs }\IeC {\cyrt }\IeC {\cyre }\IeC {\cyrr }\IeC {\cyri }\IeC {\cyrz }\IeC {\cyra }\IeC {\cyrc }\IeC {\cyri }\IeC {\cyri } \IeC {\cyrn }\IeC {\cyra } \IeC {\cyro }\IeC {\cyrd }\IeC {\cyri }\IeC {\cyrn }\IeC {\cyra }\IeC {\cyrk }\IeC {\cyro }\IeC {\cyrv }\IeC {\cyrery }\IeC {\cyrh } \IeC {\cyrd }\IeC {\cyra }\IeC {\cyrn }\IeC {\cyrn }\IeC {\cyrery }\IeC {\cyrh }.\relax }}{40}{figure.17}}
\newlabel{image:linkage-mode-examples}{{17}{41}{Примеры мер различия между кластерами для аггломеративной иерархической кластеризации на одинаковых данных.\relax \relax }{figure.17}{}}
\@writefile{toc}{\contentsline {section}{\numberline {5}\IeC {\CYRM }\IeC {\cyre }\IeC {\cyrt }\IeC {\cyro }\IeC {\cyrd }\IeC {\cyrery } \IeC {\cyro }\IeC {\cyrc }\IeC {\cyre }\IeC {\cyrn }\IeC {\cyrk }\IeC {\cyri } \IeC {\cyrk }\IeC {\cyrl }\IeC {\cyra }\IeC {\cyrs }\IeC {\cyrt }\IeC {\cyre }\IeC {\cyrr }\IeC {\cyri }\IeC {\cyrz }\IeC {\cyra }\IeC {\cyrc }\IeC {\cyri }\IeC {\cyri }}{41}{section.5}}
\@writefile{toc}{\contentsline {subsection}{\numberline {5.1}\IeC {\CYRO }\IeC {\cyrb }\IeC {\cyrshch }\IeC {\cyri }\IeC {\cyre } \IeC {\cyrp }\IeC {\cyro }\IeC {\cyrn }\IeC {\cyrya }\IeC {\cyrt }\IeC {\cyri }\IeC {\cyrya }}{41}{subsection.5.1}}
\@writefile{lof}{\contentsline {figure}{\numberline {18}{\ignorespaces \IeC {\CYRO }\IeC {\cyrd }\IeC {\cyrn }\IeC {\cyro }\IeC {\cyrr }\IeC {\cyro }\IeC {\cyrd }\IeC {\cyrn }\IeC {\cyro }\IeC {\cyrs }\IeC {\cyrt }\IeC {\cyrsftsn } \IeC {\cyrk }\IeC {\cyrl }\IeC {\cyra }\IeC {\cyrs }\IeC {\cyrt }\IeC {\cyre }\IeC {\cyrr }\IeC {\cyrn }\IeC {\cyro }\IeC {\cyrg }\IeC {\cyro } \IeC {\cyrr }\IeC {\cyre }\IeC {\cyrsh }\IeC {\cyre }\IeC {\cyrn }\IeC {\cyri }\IeC {\cyrya }\relax }}{42}{figure.18}}
\newlabel{image:measure-homogenity}{{18}{42}{Однородность кластерного решения\relax \relax }{figure.18}{}}
\@writefile{lof}{\contentsline {figure}{\numberline {19}{\ignorespaces \IeC {\CYRP }\IeC {\cyro }\IeC {\cyrl }\IeC {\cyrn }\IeC {\cyro }\IeC {\cyrt }\IeC {\cyra } \IeC {\cyrk }\IeC {\cyrl }\IeC {\cyra }\IeC {\cyrs }\IeC {\cyrt }\IeC {\cyre }\IeC {\cyrr }\IeC {\cyrn }\IeC {\cyro }\IeC {\cyrg }\IeC {\cyro } \IeC {\cyrr }\IeC {\cyre }\IeC {\cyrsh }\IeC {\cyre }\IeC {\cyrn }\IeC {\cyri }\IeC {\cyrya }\relax }}{42}{figure.19}}
\newlabel{image:measure-completeness}{{19}{42}{Полнота кластерного решения\relax \relax }{figure.19}{}}
\@writefile{lof}{\contentsline {figure}{\numberline {20}{\ignorespaces \IeC {\CYRP }\IeC {\cyrr }\IeC {\cyri }\IeC {\cyro }\IeC {\cyrr }\IeC {\cyri }\IeC {\cyrt }\IeC {\cyre }\IeC {\cyrt } \IeC {\cyro }\IeC {\cyrd }\IeC {\cyrn }\IeC {\cyro }\IeC {\cyrr }\IeC {\cyro }\IeC {\cyrd }\IeC {\cyrn }\IeC {\cyro }\IeC {\cyrs }\IeC {\cyrt }\IeC {\cyri } \IeC {\cyrn }\IeC {\cyra }\IeC {\cyrd } \IeC {\cyrp }\IeC {\cyro }\IeC {\cyrl }\IeC {\cyrn }\IeC {\cyro }\IeC {\cyrt }\IeC {\cyro }\IeC {\cyrishrt }\relax }}{43}{figure.20}}
\newlabel{image:measure-hc-priority}{{20}{43}{Приоритет однородности над полнотой\relax \relax }{figure.20}{}}
\@writefile{toc}{\contentsline {subsection}{\numberline {5.2}\IeC {\CYRV }\IeC {\cyrn }\IeC {\cyru }\IeC {\cyrt }\IeC {\cyrr }\IeC {\cyre }\IeC {\cyrn }\IeC {\cyrn }\IeC {\cyrya }\IeC {\cyrya } \IeC {\cyro }\IeC {\cyrc }\IeC {\cyre }\IeC {\cyrn }\IeC {\cyrk }\IeC {\cyra }}{43}{subsection.5.2}}
\newlabel{equation:internal-quality}{{13}{43}{Внутренняя оценка\relax }{equation.5.13}{}}
\newlabel{equation:internal-quality-cosine}{{14}{43}{Внутренняя оценка\relax }{equation.5.14}{}}
\@writefile{toc}{\contentsline {subsection}{\numberline {5.3}\IeC {\CYRM }\IeC {\cyre }\IeC {\cyrr }\IeC {\cyrery }, \IeC {\cyro }\IeC {\cyrs }\IeC {\cyrn }\IeC {\cyro }\IeC {\cyrv }\IeC {\cyra }\IeC {\cyrn }\IeC {\cyrn }\IeC {\cyrery }\IeC {\cyre } \IeC {\cyrn }\IeC {\cyra } \IeC {\cyri }\IeC {\cyrn }\IeC {\cyrf }\IeC {\cyro }\IeC {\cyrr }\IeC {\cyrm }\IeC {\cyra }\IeC {\cyrc }\IeC {\cyri }\IeC {\cyro }\IeC {\cyrn }\IeC {\cyrn }\IeC {\cyro }\IeC {\cyrishrt } \IeC {\cyrerev }\IeC {\cyrn }\IeC {\cyrt }\IeC {\cyrr }\IeC {\cyro }\IeC {\cyrp }\IeC {\cyri }\IeC {\cyri }}{44}{subsection.5.3}}
\newlabel{equation:single-cluster-entropy}{{15}{44}{Меры, основанные на информационной энтропии\relax }{equation.5.15}{}}
\newlabel{equation:common-cluster-entropy}{{16}{44}{Меры, основанные на информационной энтропии\relax }{equation.5.16}{}}
\newlabel{equation:v-measure-common}{{17}{45}{Меры, основанные на информационной энтропии\relax }{equation.5.17}{}}
\newlabel{equation:v-measure-h}{{19}{45}{Меры, основанные на информационной энтропии\relax }{equation.5.19}{}}
\@writefile{toc}{\contentsline {subsection}{\numberline {5.4}\IeC {\CYRK }\IeC {\cyro }\IeC {\cyrm }\IeC {\cyrb }\IeC {\cyri }\IeC {\cyrn }\IeC {\cyra }\IeC {\cyrt }\IeC {\cyro }\IeC {\cyrr }\IeC {\cyrn }\IeC {\cyrery }\IeC {\cyre } \IeC {\cyrm }\IeC {\cyre }\IeC {\cyrr }\IeC {\cyrery }}{46}{subsection.5.4}}
\newlabel{equation:rand-index}{{20}{47}{Комбинаторные меры\relax }{equation.5.20}{}}
\newlabel{equation:f-measure-recall}{{21}{47}{Комбинаторные меры\relax }{equation.5.21}{}}
\newlabel{equation:f-measure-precision}{{22}{47}{Комбинаторные меры\relax }{equation.5.22}{}}
\newlabel{equation:f-measure}{{23}{47}{Комбинаторные меры\relax }{equation.5.23}{}}
\@writefile{toc}{\contentsline {subsection}{\numberline {5.5}\IeC {\CYRM }\IeC {\cyre }\IeC {\cyrr }\IeC {\cyrery }, \IeC {\cyro }\IeC {\cyrs }\IeC {\cyrn }\IeC {\cyro }\IeC {\cyrv }\IeC {\cyra }\IeC {\cyrn }\IeC {\cyrn }\IeC {\cyrery }\IeC {\cyre } \IeC {\cyrn }\IeC {\cyra } \IeC {\cyrs }\IeC {\cyro }\IeC {\cyro }\IeC {\cyrt }\IeC {\cyrv }\IeC {\cyre }\IeC {\cyrt }\IeC {\cyrs }\IeC {\cyrt }\IeC {\cyrv }\IeC {\cyri }\IeC {\cyri }}{47}{subsection.5.5}}
\newlabel{equation:purity-one}{{24}{48}{Меры, основанные на соответствии\relax }{equation.5.24}{}}
\newlabel{equation:purity-overall}{{25}{48}{Меры, основанные на соответствии\relax }{equation.5.25}{}}
\@writefile{toc}{\contentsline {subsection}{\numberline {5.6}\IeC {\CYRV }\IeC {\cyrery }\IeC {\cyrb }\IeC {\cyro }\IeC {\cyrr } \IeC {\cyrm }\IeC {\cyre }\IeC {\cyrr }}{48}{subsection.5.6}}
\@writefile{lot}{\contentsline {table}{\numberline {5}{\ignorespaces \IeC {\CYRS }\IeC {\cyrr }\IeC {\cyra }\IeC {\cyrv }\IeC {\cyrn }\IeC {\cyre }\IeC {\cyrn }\IeC {\cyri }\IeC {\cyre } \IeC {\cyrm }\IeC {\cyre }\IeC {\cyrr } \IeC {\cyrk }\IeC {\cyra }\IeC {\cyrch }\IeC {\cyre }\IeC {\cyrs }\IeC {\cyrt }\IeC {\cyrv }\IeC {\cyra } \IeC {\cyrn }\IeC {\cyra } \IeC {\cyrerev }\IeC {\cyrk }\IeC {\cyrs }\IeC {\cyrp }\IeC {\cyre }\IeC {\cyrr }\IeC {\cyri }\IeC {\cyrm }\IeC {\cyre }\IeC {\cyrn }\IeC {\cyrt }\IeC {\cyra }\IeC {\cyrl }\IeC {\cyrsftsn }\IeC {\cyrn }\IeC {\cyrery }\IeC {\cyrh } \IeC {\cyrd }\IeC {\cyra }\IeC {\cyrn }\IeC {\cyrn }\IeC {\cyrery }\IeC {\cyrh }\relax }}{48}{table.5}}
\newlabel{table:quality-measures-comparison}{{5}{48}{Сравнение мер качества на экспериментальных данных\relax \relax }{table.5}{}}
\@writefile{lof}{\contentsline {figure}{\numberline {21}{\ignorespaces \IeC {\CYRO }\IeC {\cyrc }\IeC {\cyre }\IeC {\cyrn }\IeC {\cyrk }\IeC {\cyra } \IeC {\cyrm }\IeC {\cyre }\IeC {\cyrr } \IeC {\cyrk }\IeC {\cyra }\IeC {\cyrch }\IeC {\cyre }\IeC {\cyrs }\IeC {\cyrt }\IeC {\cyrv }\IeC {\cyra } \IeC {\cyrn }\IeC {\cyra } \IeC {\cyri }\IeC {\cyrs }\IeC {\cyrk }\IeC {\cyru }\IeC {\cyrs }\IeC {\cyrs }\IeC {\cyrt }\IeC {\cyrv }\IeC {\cyre }\IeC {\cyrn }\IeC {\cyrn }\IeC {\cyrery }\IeC {\cyrh } \IeC {\cyrk }\IeC {\cyrl }\IeC {\cyra }\IeC {\cyrs }\IeC {\cyrt }\IeC {\cyre }\IeC {\cyrr }\IeC {\cyra }\IeC {\cyrh }\relax }}{49}{figure.21}}
\newlabel{image:benchmark-evaluation-measures}{{21}{49}{Оценка мер качества на искусственных кластерах\relax \relax }{figure.21}{}}
\@writefile{toc}{\contentsline {subsection}{\numberline {5.7}\IeC {\CYRS }\IeC {\cyrr }\IeC {\cyra }\IeC {\cyrv }\IeC {\cyrn }\IeC {\cyre }\IeC {\cyrn }\IeC {\cyri }\IeC {\cyre } \IeC {\cyrm }\IeC {\cyre }\IeC {\cyrt }\IeC {\cyro }\IeC {\cyrd }\IeC {\cyro }\IeC {\cyrv } \IeC {\cyrk }\IeC {\cyrl }\IeC {\cyra }\IeC {\cyrs }\IeC {\cyrt }\IeC {\cyre }\IeC {\cyrr }\IeC {\cyri }\IeC {\cyrz }\IeC {\cyra }\IeC {\cyrc }\IeC {\cyri }\IeC {\cyri }}{50}{subsection.5.7}}
\@writefile{lof}{\contentsline {figure}{\numberline {22}{\ignorespaces \IeC {\CYRO }\IeC {\cyrc }\IeC {\cyre }\IeC {\cyrn }\IeC {\cyrk }\IeC {\cyra } $V_{beta}$ \IeC {\cyrd }\IeC {\cyrl }\IeC {\cyrya } \IeC {\cyrk }\IeC {\cyrl }\IeC {\cyra }\IeC {\cyrs }\IeC {\cyrt }\IeC {\cyre }\IeC {\cyrr }\IeC {\cyrn }\IeC {\cyrery }\IeC {\cyrh } \IeC {\cyrr }\IeC {\cyre }\IeC {\cyrsh }\IeC {\cyre }\IeC {\cyrn }\IeC {\cyri }\IeC {\cyrishrt }, \IeC {\cyrp }\IeC {\cyro }\IeC {\cyrl }\IeC {\cyru }\IeC {\cyrch }\IeC {\cyre }\IeC {\cyrn }\IeC {\cyrn }\IeC {\cyrery }\IeC {\cyrh } \IeC {\cyrr }\IeC {\cyra }\IeC {\cyrz }\IeC {\cyrl }\IeC {\cyri }\IeC {\cyrch }\IeC {\cyrn }\IeC {\cyrery }\IeC {\cyrm }\IeC {\cyri } \IeC {\cyrm }\IeC {\cyre }\IeC {\cyrt }\IeC {\cyro }\IeC {\cyrd }\IeC {\cyra }\IeC {\cyrm }\IeC {\cyri }\relax }}{51}{figure.22}}
\newlabel{image:benchmark-vbeta-overall}{{22}{51}{Оценка $V_{beta}$ для кластерных решений, полученных различными методами\relax \relax }{figure.22}{}}
\@writefile{lof}{\contentsline {figure}{\numberline {23}{\ignorespaces \IeC {\CYRS }\IeC {\cyrr }\IeC {\cyre }\IeC {\cyrd }\IeC {\cyrn }\IeC {\cyrya }\IeC {\cyrya } \IeC {\cyro }\IeC {\cyrc }\IeC {\cyre }\IeC {\cyrn }\IeC {\cyrk }\IeC {\cyra } \IeC {\cyrs }\IeC {\cyru }\IeC {\cyrm }\IeC {\cyrm }\IeC {\cyrery } \IeC {\cyrm }\IeC {\cyre }\IeC {\cyrr } \IeC {\cyrk }\IeC {\cyra }\IeC {\cyrch }\IeC {\cyre }\IeC {\cyrs }\IeC {\cyrt }\IeC {\cyrv }\IeC {\cyra } \IeC {\cyrd }\IeC {\cyrl }\IeC {\cyrya } \IeC {\cyrk }\IeC {\cyrl }\IeC {\cyra }\IeC {\cyrs }\IeC {\cyrt }\IeC {\cyre }\IeC {\cyrr }\IeC {\cyrn }\IeC {\cyrery }\IeC {\cyrh } \IeC {\cyrr }\IeC {\cyre }\IeC {\cyrsh }\IeC {\cyre }\IeC {\cyrn }\IeC {\cyri }\IeC {\cyrishrt }, \IeC {\cyrp }\IeC {\cyro }\IeC {\cyrl }\IeC {\cyru }\IeC {\cyrch }\IeC {\cyre }\IeC {\cyrn }\IeC {\cyrn }\IeC {\cyrery }\IeC {\cyrh } \IeC {\cyrr }\IeC {\cyra }\IeC {\cyrz }\IeC {\cyrl }\IeC {\cyri }\IeC {\cyrch }\IeC {\cyrn }\IeC {\cyrery }\IeC {\cyrm }\IeC {\cyri } \IeC {\cyrm }\IeC {\cyre }\IeC {\cyrt }\IeC {\cyro }\IeC {\cyrd }\IeC {\cyra }\IeC {\cyrm }\IeC {\cyri }\relax }}{51}{figure.23}}
\newlabel{image:benchmark-avg-overall}{{23}{52}{Средняя оценка суммы мер качества для кластерных решений, полученных различными методами\relax \relax }{figure.23}{}}
\@writefile{lof}{\contentsline {figure}{\numberline {24}{\ignorespaces \IeC {\CYRO }\IeC {\cyrc }\IeC {\cyre }\IeC {\cyrn }\IeC {\cyrk }\IeC {\cyra } $V_{beta}$ \IeC {\cyrd }\IeC {\cyrl }\IeC {\cyrya } \IeC {\cyrk }\IeC {\cyrl }\IeC {\cyra }\IeC {\cyrs }\IeC {\cyrt }\IeC {\cyre }\IeC {\cyrr }\IeC {\cyrn }\IeC {\cyrery }\IeC {\cyrh } \IeC {\cyrr }\IeC {\cyre }\IeC {\cyrsh }\IeC {\cyre }\IeC {\cyrn }\IeC {\cyri }\IeC {\cyrishrt }, \IeC {\cyrp }\IeC {\cyro }\IeC {\cyrl }\IeC {\cyru }\IeC {\cyrch }\IeC {\cyre }\IeC {\cyrn }\IeC {\cyrn }\IeC {\cyrery }\IeC {\cyrh } \IeC {\cyrs } \IeC {\cyrp }\IeC {\cyro }\IeC {\cyrm }\IeC {\cyro }\IeC {\cyrshch }\IeC {\cyrsftsn }\IeC {\cyryu } \IeC {\cyri }\IeC {\cyre }\IeC {\cyrr }\IeC {\cyra }\IeC {\cyrr }\IeC {\cyrh }\IeC {\cyri }\IeC {\cyrch }\IeC {\cyre }\IeC {\cyrs }\IeC {\cyrk }\IeC {\cyro }\IeC {\cyrg }\IeC {\cyro } \IeC {\cyrm }\IeC {\cyre }\IeC {\cyrt }\IeC {\cyro }\IeC {\cyrd }\IeC {\cyra }\relax }}{52}{figure.24}}
\newlabel{image:benchmark-vbeta-gaac}{{24}{52}{Оценка $V_{beta}$ для кластерных решений, полученных с помощью иерархического метода\relax \relax }{figure.24}{}}
\@writefile{toc}{\contentsline {section}{\numberline {6}\IeC {\CYRZ }\IeC {\cyra }\IeC {\cyrd }\IeC {\cyra }\IeC {\cyrch }\IeC {\cyra } \IeC {\cyrp }\IeC {\cyro }\IeC {\cyri }\IeC {\cyrs }\IeC {\cyrk }\IeC {\cyra } \IeC {\cyrb }\IeC {\cyrl }\IeC {\cyri }\IeC {\cyrzh }\IeC {\cyra }\IeC {\cyrishrt }\IeC {\cyrsh }\IeC {\cyri }\IeC {\cyrh } \IeC {\cyrs }\IeC {\cyro }\IeC {\cyrs }\IeC {\cyre }\IeC {\cyrd }\IeC {\cyre }\IeC {\cyrishrt }}{52}{section.6}}
\@writefile{toc}{\contentsline {subsection}{\numberline {6.1}\IeC {\CYRL }\IeC {\cyri }\IeC {\cyrn }\IeC {\cyre }\IeC {\cyrishrt }\IeC {\cyrn }\IeC {\cyrery }\IeC {\cyrishrt } \IeC {\cyrp }\IeC {\cyro }\IeC {\cyri }\IeC {\cyrs }\IeC {\cyrk }}{53}{subsection.6.1}}
\@writefile{toc}{\contentsline {subsection}{\numberline {6.2}\IeC {\CYRR }\IeC {\cyra }\IeC {\cyrz }\IeC {\cyrb }\IeC {\cyri }\IeC {\cyre }\IeC {\cyrn }\IeC {\cyri }\IeC {\cyre } \IeC {\cyrp }\IeC {\cyrr }\IeC {\cyro }\IeC {\cyrs }\IeC {\cyrt }\IeC {\cyrr }\IeC {\cyra }\IeC {\cyrn }\IeC {\cyrs }\IeC {\cyrt }\IeC {\cyrv }\IeC {\cyra }}{53}{subsection.6.2}}
\@writefile{lof}{\contentsline {figure}{\numberline {25}{\ignorespaces \IeC {\CYRP }\IeC {\cyrr }\IeC {\cyri }\IeC {\cyrm }\IeC {\cyre }\IeC {\cyrr } \IeC {\cyrp }\IeC {\cyro }\IeC {\cyri }\IeC {\cyrs }\IeC {\cyrk }\IeC {\cyra } \IeC {\cyrerev }\IeC {\cyrl }\IeC {\cyre }\IeC {\cyrm }\IeC {\cyre }\IeC {\cyrn }\IeC {\cyrt }\IeC {\cyra } \IeC {\cyrs } \IeC {\cyrm }\IeC {\cyri }\IeC {\cyrn }\IeC {\cyri }\IeC {\cyrm }\IeC {\cyra }\IeC {\cyrl }\IeC {\cyrsftsn }\IeC {\cyrn }\IeC {\cyro }\IeC {\cyrishrt } \IeC {\cyrk }\IeC {\cyro }\IeC {\cyro }\IeC {\cyrr }\IeC {\cyrd }\IeC {\cyri }\IeC {\cyrn }\IeC {\cyra }\IeC {\cyrt }\IeC {\cyro }\IeC {\cyrishrt } y \IeC {\cyrs } \IeC {\cyrv }\IeC {\cyrery }\IeC {\cyrd }\IeC {\cyre }\IeC {\cyrl }\IeC {\cyre }\IeC {\cyrn }\IeC {\cyrn }\IeC {\cyro }\IeC {\cyrishrt } \IeC {\cyro }\IeC {\cyrb }\IeC {\cyrl }\IeC {\cyra }\IeC {\cyrs }\IeC {\cyrt }\IeC {\cyrsftsn }\IeC {\cyryu } \IeC {\cyrp }\IeC {\cyro }\IeC {\cyri }\IeC {\cyrs }\IeC {\cyrk }\IeC {\cyra } \IeC {\cyrv } kd-\IeC {\cyrd }\IeC {\cyre }\IeC {\cyrr }\IeC {\cyre }\IeC {\cyrv }\IeC {\cyre } \IeC {\cyrr }\IeC {\cyra }\IeC {\cyrz }\IeC {\cyrm }\IeC {\cyre }\IeC {\cyrr }\IeC {\cyrn }\IeC {\cyro }\IeC {\cyrs }\IeC {\cyrt }\IeC {\cyri } 2.\relax }}{53}{figure.25}}
\newlabel{kd-tree-y-search}{{25}{54}{Пример поиска элемента с минимальной координатой y с выделенной областью поиска в kd-дереве размерности 2.\relax \relax }{figure.25}{}}
\citation{leewong}
\@writefile{lof}{\contentsline {figure}{\numberline {26}{\ignorespaces \IeC {\CYRO }\IeC {\cyrb }\IeC {\cyrh }\IeC {\cyro }\IeC {\cyrd } \IeC {\cyrd }\IeC {\cyre }\IeC {\cyrr }\IeC {\cyre }\IeC {\cyrv }\IeC {\cyra } \IeC {\cyrs } \IeC {\cyro }\IeC {\cyrt }\IeC {\cyrs }\IeC {\cyre }\IeC {\cyrch }\IeC {\cyre }\IeC {\cyrn }\IeC {\cyri }\IeC {\cyrya }\IeC {\cyrm }\IeC {\cyri }, \IeC {\cyrp }\IeC {\cyrr }\IeC {\cyri }\IeC {\cyrm }\IeC {\cyre }\IeC {\cyrr } \IeC {\cyro }\IeC {\cyrt }\IeC {\cyrs }\IeC {\cyre }\IeC {\cyrk }\IeC {\cyra }\IeC {\cyryu }\IeC {\cyrshch }\IeC {\cyre }\IeC {\cyrishrt } \IeC {\cyrg }\IeC {\cyri }\IeC {\cyrp }\IeC {\cyre }\IeC {\cyrr }\IeC {\cyrs }\IeC {\cyrf }\IeC {\cyre }\IeC {\cyrr }\IeC {\cyrery }.\relax }}{55}{figure.26}}
\newlabel{kd-tree-branches-and-bounds}{{26}{55}{Обход дерева с отсечениями, пример отсекающей гиперсферы.\relax \relax }{figure.26}{}}
\@writefile{toc}{\contentsline {subsection}{\numberline {6.3}\IeC {\CYRL }\IeC {\cyro }\IeC {\cyrk }\IeC {\cyra }\IeC {\cyrl }\IeC {\cyrsftsn }\IeC {\cyrn }\IeC {\cyro }-\IeC {\cyrch }\IeC {\cyru }\IeC {\cyrv }\IeC {\cyrs }\IeC {\cyrt }\IeC {\cyrv }\IeC {\cyri }\IeC {\cyrt }\IeC {\cyre }\IeC {\cyrl }\IeC {\cyrsftsn }\IeC {\cyrn }\IeC {\cyro }\IeC {\cyre } \IeC {\cyrh }\IeC {\cyrerev }\IeC {\cyrsh }\IeC {\cyri }\IeC {\cyrr }\IeC {\cyro }\IeC {\cyrv }\IeC {\cyra }\IeC {\cyrn }\IeC {\cyri }\IeC {\cyre } (LSH)}{55}{subsection.6.3}}
\@writefile{lof}{\contentsline {figure}{\numberline {27}{\ignorespaces \IeC {\CYRO }\IeC {\cyrzh }\IeC {\cyri }\IeC {\cyrd }\IeC {\cyra }\IeC {\cyre }\IeC {\cyrm }\IeC {\cyro }\IeC {\cyre } \IeC {\cyrp }\IeC {\cyro }\IeC {\cyrv }\IeC {\cyre }\IeC {\cyrd }\IeC {\cyre }\IeC {\cyrn }\IeC {\cyri }\IeC {\cyre } $(d_1,d_2,p_1,p_2)$-\IeC {\cyrch }\IeC {\cyru }\IeC {\cyrv }\IeC {\cyrs }\IeC {\cyrt }\IeC {\cyrv }\IeC {\cyri }\IeC {\cyrt }\IeC {\cyre }\IeC {\cyrl }\IeC {\cyrsftsn }\IeC {\cyrn }\IeC {\cyrery }\IeC {\cyrh } \IeC {\cyrf }\IeC {\cyru }\IeC {\cyrn }\IeC {\cyrk }\IeC {\cyrc }\IeC {\cyri }\IeC {\cyrishrt }.\relax }}{56}{figure.27}}
\newlabel{locality-sensitive-prob}{{27}{57}{Ожидаемое поведение $(d_1,d_2,p_1,p_2)$-чувствительных функций.\relax \relax }{figure.27}{}}
\@writefile{toc}{\contentsline {subsubsection}{\numberline {6.3.1}LSH \IeC {\cyrd }\IeC {\cyrl }\IeC {\cyrya } \IeC {\CYRE }\IeC {\cyrv }\IeC {\cyrk }\IeC {\cyrl }\IeC {\cyri }\IeC {\cyrd }\IeC {\cyro }\IeC {\cyrv }\IeC {\cyro }\IeC {\cyrg }\IeC {\cyro } \IeC {\cyrp }\IeC {\cyrr }\IeC {\cyro }\IeC {\cyrs }\IeC {\cyrt }\IeC {\cyrr }\IeC {\cyra }\IeC {\cyrn }\IeC {\cyrs }\IeC {\cyrt }\IeC {\cyrv }\IeC {\cyra }}{57}{subsubsection.6.3.1}}
\@writefile{lof}{\contentsline {figure}{\numberline {28}{\ignorespaces \IeC {\CYRD }\IeC {\cyrv }\IeC {\cyre } \IeC {\cyrt }\IeC {\cyro }\IeC {\cyrch }\IeC {\cyrk }\IeC {\cyri } \IeC {\cyrn }\IeC {\cyra } \IeC {\cyrr }\IeC {\cyra }\IeC {\cyrs }\IeC {\cyrs }\IeC {\cyrt }\IeC {\cyro }\IeC {\cyrya }\IeC {\cyrn }\IeC {\cyri }\IeC {\cyri } $d \gg a$ \IeC {\cyri }\IeC {\cyrm }\IeC {\cyre }\IeC {\cyryu }\IeC {\cyrt } \IeC {\cyrm }\IeC {\cyra }\IeC {\cyrl }\IeC {\cyru }\IeC {\cyryu } \IeC {\cyrv }\IeC {\cyre }\IeC {\cyrr }\IeC {\cyro }\IeC {\cyrya }\IeC {\cyrt }\IeC {\cyrn }\IeC {\cyro }\IeC {\cyrs }\IeC {\cyrt }\IeC {\cyrsftsn } \IeC {\cyro }\IeC {\cyrk }\IeC {\cyra }\IeC {\cyrz }\IeC {\cyra }\IeC {\cyrt }\IeC {\cyrsftsn }\IeC {\cyrs }\IeC {\cyrya } \IeC {\cyrv } \IeC {\cyro }\IeC {\cyrd }\IeC {\cyrn }\IeC {\cyro }\IeC {\cyrishrt } \IeC {\cyrk }\IeC {\cyro }\IeC {\cyrr }\IeC {\cyrz }\IeC {\cyri }\IeC {\cyrn }\IeC {\cyre }.\relax }}{57}{figure.28}}
\newlabel{euklidean_lhs}{{28}{57}{Две точки на расстоянии $d \gg a$ имеют малую вероятность оказаться в одной корзине.\relax \relax }{figure.28}{}}
\newlabel{eq:Eukl-hash}{{26}{58}{LSH для Евклидового пространства\relax }{equation.6.26}{}}
\@writefile{toc}{\contentsline {subsubsection}{\numberline {6.3.2}\IeC {\CYRS }\IeC {\cyre }\IeC {\cyrm }\IeC {\cyre }\IeC {\cyrishrt }\IeC {\cyrs }\IeC {\cyrt }\IeC {\cyrv }\IeC {\cyra } \IeC {\cyrs }\IeC {\cyro }\IeC {\cyrs }\IeC {\cyrt }\IeC {\cyra }\IeC {\cyrv }\IeC {\cyrn }\IeC {\cyrery }\IeC {\cyrh } \IeC {\cyrf }\IeC {\cyru }\IeC {\cyrn }\IeC {\cyrk }\IeC {\cyrc }\IeC {\cyri }\IeC {\cyrishrt }}{58}{subsubsection.6.3.2}}
\@writefile{lof}{\contentsline {figure}{\numberline {29}{\ignorespaces \IeC {\CYRV }\IeC {\cyre }\IeC {\cyrr }\IeC {\cyro }\IeC {\cyrya }\IeC {\cyrt }\IeC {\cyrn }\IeC {\cyro }\IeC {\cyrs }\IeC {\cyrt }\IeC {\cyrsftsn } \IeC {\cyri }\IeC {\cyrs }\IeC {\cyrt }\IeC {\cyri }\IeC {\cyrn }\IeC {\cyrn }\IeC {\cyro }-\IeC {\cyrp }\IeC {\cyro }\IeC {\cyrl }\IeC {\cyro }\IeC {\cyrzh }\IeC {\cyri }\IeC {\cyrt }\IeC {\cyre }\IeC {\cyrl }\IeC {\cyrsftsn }\IeC {\cyrn }\IeC {\cyro }\IeC {\cyrg }\IeC {\cyro } \IeC {\cyrr }\IeC {\cyre }\IeC {\cyrz }\IeC {\cyru }\IeC {\cyrl }\IeC {\cyrsftsn }\IeC {\cyrt }\IeC {\cyra }\IeC {\cyrt }\IeC {\cyra } \IeC {\cyrd }\IeC {\cyrl }\IeC {\cyrya } $r=4$.\relax }}{59}{figure.29}}
\newlabel{lhs-positive-prob-for-2d-euklid}{{29}{59}{Вероятность истинно-положительного результата для $r=4$.\relax \relax }{figure.29}{}}
\@writefile{lof}{\contentsline {figure}{\numberline {30}{\ignorespaces \IeC {\CYRV }\IeC {\cyre }\IeC {\cyrr }\IeC {\cyro }\IeC {\cyrya }\IeC {\cyrt }\IeC {\cyrn }\IeC {\cyro }\IeC {\cyrs }\IeC {\cyrt }\IeC {\cyrsftsn } \IeC {\cyrl }\IeC {\cyro }\IeC {\cyrzh }\IeC {\cyrn }\IeC {\cyro }-\IeC {\cyrp }\IeC {\cyro }\IeC {\cyrl }\IeC {\cyro }\IeC {\cyrzh }\IeC {\cyri }\IeC {\cyrt }\IeC {\cyre }\IeC {\cyrl }\IeC {\cyrsftsn }\IeC {\cyrn }\IeC {\cyro }\IeC {\cyrg }\IeC {\cyro } \IeC {\cyrr }\IeC {\cyre }\IeC {\cyrz }\IeC {\cyru }\IeC {\cyrl }\IeC {\cyrsftsn }\IeC {\cyrt }\IeC {\cyra }\IeC {\cyrt }\IeC {\cyra } \IeC {\cyrd }\IeC {\cyrl }\IeC {\cyrya } $r=4$.\relax }}{60}{figure.30}}
\newlabel{lhs-false-positive-prob-for-2d-euklid}{{30}{60}{Вероятность ложно-положительного результата для $r=4$.\relax \relax }{figure.30}{}}
\@writefile{toc}{\contentsline {section}{\numberline {7}\IeC {\CYRZ }\IeC {\cyra }\IeC {\cyrk }\IeC {\cyrl }\IeC {\cyryu }\IeC {\cyrch }\IeC {\cyre }\IeC {\cyrn }\IeC {\cyri }\IeC {\cyre }}{61}{section.7}}
\bibstyle{gost780s}
\bibdata{bib}
\bibcite{eckart}{{1}{}{{}}{{}}}
\bibcite{geiss}{{2}{}{{}}{{}}}
\bibcite{hastie}{{3}{}{{}}{{}}}
\bibcite{suleyman}{{4}{}{{}}{{}}}
\bibcite{leewong}{{5}{}{{}}{{}}}
\bibcite{liu}{{6}{}{{}}{{}}}
\bibcite{russel}{{7}{}{{}}{{}}}
\bibcite{guy}{{8}{}{{}}{{}}}
\bibcite{shegaran}{{9}{}{{}}{{}}}
\bibcite{yin}{{10}{}{{}}{{}}}
\bibcite{aivazyan}{{11}{}{{}}{{}}}
\providecommand\NAT@force@numbers{}\NAT@force@numbers
