This is BibTeX, Version 0.99d (TeX Live 2012/Debian)
Capacity: max_strings=35307, hash_size=35307, hash_prime=30011
The top-level auxiliary file: graduate_paper.aux
The style file: gost780s.bst
Reallocated wiz_functions (elt_size=4) to 6000 items from 3000.
Database file #1: bib.bib
Warning--language is not defined: Englishvvol
Warning--language is not defined: Englishnr
Warning--language is not defined: Englishtechrep
Warning--language is not defined: Englishmedium
Warning--language is not defined: Englishvvol
Warning--language is not defined: Englishnr
Warning--language is not defined: Englishppages
Warning--language is not defined: Englishet~al
You've used 11 entries,
            3939 wiz_defined-function locations,
            1162 strings with 11498 characters,
and the built_in function-call counts, 4252 in all, are:
= -- 517
> -- 152
< -- 25
+ -- 58
- -- 44
* -- 292
:= -- 574
add.period$ -- 32
call.type$ -- 11
change.case$ -- 51
chr.to.int$ -- 0
cite$ -- 11
duplicate$ -- 200
empty$ -- 409
format.name$ -- 51
if$ -- 1050
int.to.chr$ -- 0
int.to.str$ -- 11
missing$ -- 0
newline$ -- 69
num.names$ -- 40
pop$ -- 106
preamble$ -- 1
purify$ -- 41
quote$ -- 14
skip$ -- 111
stack$ -- 0
substring$ -- 90
swap$ -- 103
text.length$ -- 4
text.prefix$ -- 0
top$ -- 0
type$ -- 0
warning$ -- 8
while$ -- 21
width$ -- 13
write$ -- 143
(There were 8 warnings)
